

ourysow@vmi355423:~/docker/projet_mysql/mysql_docker_file$ docker build -t ourysow/im_mysql57:1.0 .


ourysow@vmi355423:~/docker/projet_mysql/mysql_docker_file$ docker images
REPOSITORY           TAG                 IMAGE ID            CREATED             SIZE
ourysow/im_mysql57   1.0                 2e79133452af        49 seconds ago      456MB
mysql                5.7                 84164b03fa2e        8 days ago          456MB

ourysow@vmi355423:~/docker/projet_mysql/mysql_docker_file$ docker run --name ctmysql57 -p 3307:3306 -d ourysow/im_mysql57:1.0
898542e37b195c61169099599531b0f0b238eb64d767d82c8fb9c41c78a553ec

ourysow@vmi355423:~/docker/projet_mysql/mysql_docker_file$ docker ps
CONTAINER ID        IMAGE                    COMMAND                  CREATED             STATUS              PORTS                                         NAMES
898542e37b19        ourysow/im_mysql57:1.0   "docker-entrypoint.s…"   18 seconds ago      Up 18 seconds       3307/tcp, 33060/tcp, 0.0.0.0:3307->3306/tcp   ctmysql57
ourysow@vmi355423:~/docker/projet_mysql/mysql_docker_file$


ourysow@vmi355423:~/docker/projet_mysql/mysql_docker_file$ docker start ctmysql57 (si demare pas)

ourysow@vmi355423:~/docker/projet_mysql/mysql_docker_file$ docker exec -it ctmysql57 /bin/bash
root@898542e37b19:/#


root@55eeb9811f01:/# mysql -uourysow -plamarana

mysql>
mysql> show databases;
+--------------------+
| Database           |
+--------------------+
| information_schema |
| groupe             |
+--------------------+
2 rows in set (0.00 sec)


mysql> use groupe;
Database changed

mysql> show tables;
+------------------+
| Tables_in_groupe |
+------------------+
| TG_PAYS          |
+------------------+
1 row in set (0.00 sec)


mysql> SELECT * FROM TG_PAYS;
+---------+---------+----------+
| ID_PAYS | CD_PAYS | LB_PAYS  |
+---------+---------+----------+
|       1 | FR      | FRANCE   |
|       2 | BE      | BELGIQUE |
+---------+---------+----------+
2 rows in set (0.00 sec)


freebox@VMFREEBOX:~/docker/web_nginx/3_DockerFile$ docker commit ctmysql57 ourysow/mysql57:1.0 

ourysow@vmi355423:~/docker/projet_mysql/mysql_docker_file$ docker ps
CONTAINER ID        IMAGE                    COMMAND                  CREATED             STATUS              PORTS                                         NAMES
898542e37b19        ourysow/im_mysql57:1.0   "docker-entrypoint.s…"   7 minutes ago       Up 7 minutes        3307/tcp, 33060/tcp, 0.0.0.0:3307->3306/tcp   ctmysql57

ourysow@vmi355423:~/docker/projet_mysql/mysql_docker_file$ docker login  //ID: ourysow pwd: Lamarana@20


ourysow@vmi355423:~/docker/projet_mysql/mysql_docker_file$ docker commit ctmysql57 ourysow/mysql:5.7.1
sha256:d1c2a2d64ee11e41e06519856db436f564ec651cc425f552bef89293848da409
ourysow@vmi355423:~/docker/projet_mysql/mysql_docker_file$ docker push ourysow/mysql:5.7.1



ourysow@vmi355423:~/docker/projet_mysql/mysql_docker_file$ docker rmi -f $(docker images -a -q)


ourysow@vmi355423:~/docker/projet_mysql/mysql_docker_file$ docker run --name mysql57 -p 3307:3306 -d ourysow/mysql:5.7.1







